<?xml version="1.0" encoding="UTF-8"?>
<svg width="88px" height="66px" viewBox="0 0 88 66" version="1.1" xmlns="http://www.w3.org/2000/svg" xmlns:xlink="http://www.w3.org/1999/xlink">
    <!-- Generator: Sketch 48.2 (47327) - http://www.bohemiancoding.com/sketch -->
    <title>ico_teklif</title>
    <desc>Created with Sketch.</desc>
    <defs></defs>
    <g id="homepage-signup" stroke="none" stroke-width="1" fill="none" fill-rule="evenodd" transform="translate(-979.000000, -772.000000)">
        <g id="ico_teklif" transform="translate(979.000000, 772.000000)" fill="#1061A0" fill-rule="nonzero">
            <g id="Group">
                <path d="M70.312,10.4384615 C69.784,10.7923077 69.872,11.5884615 70.4,12.4730769 C70.928,13.3576923 71.632,13.7115385 72.16,13.3576923 C72.688,13.0038462 72.6,12.2961538 71.984,11.4115385 C71.544,10.6153846 70.928,10.0846154 70.312,10.4384615 Z" id="Shape"></path>
                <path d="M87.032,10.9692308 L80.432,0.619230769 C79.904,-0.176923077 79.112,-0.0884615385 78.32,0.442307692 L62.656,10.7923077 C62.216,11.0576923 61.688,11.7653846 61.512,12.2961538 L59.664,17.4269231 C59.488,17.9576923 59.576,18.7538462 59.84,19.1961538 L60.368,20.0807692 C58.608,21.3192308 56.76,23.2653846 55.792,25.5653846 L55,23 C54.032,19.8153846 50.776,17.3384615 47.432,17.1615385 L18.128,17.1615385 C14.872,17.3384615 11.528,19.8153846 10.56,23 L8.536,29.8115385 L5.016,29.8115385 C2.904,29.8115385 1.232,31.4923077 1.232,33.6153846 C1.232,35.65 2.816,37.2423077 4.752,37.4192308 C2.288,38.5692308 0.704,41.0461538 0.704,43.8769231 L0.704,56.6153846 C0.704,58.2076923 2.024,59.5346154 3.608,59.6230769 L3.608,65.9038462 C3.608,67.1423077 4.664,68.2038462 5.896,68.2038462 L10.56,68.2038462 C11.792,68.2038462 12.848,67.1423077 12.848,65.9038462 L12.848,59.6230769 L52.976,59.6230769 L52.976,65.9038462 C52.976,67.1423077 54.032,68.2038462 55.264,68.2038462 L60.016,68.2038462 C61.248,68.2038462 62.304,67.1423077 62.304,65.9038462 L62.304,59.6230769 C63.888,59.6230769 65.208,58.2961538 65.208,56.6153846 L65.208,43.7884615 C65.208,40.8692308 63.536,38.4807692 61.072,37.3307692 C63.008,37.1538462 64.592,35.5615385 64.592,33.5269231 C64.592,31.4038462 62.92,29.7230769 60.808,29.7230769 L57.288,29.7230769 C56.848,25.9192308 59.576,23.2653846 61.688,21.6730769 L62.568,23.0884615 C62.832,23.5307692 63.536,23.9730769 64.064,23.9730769 L69.256,24.15 C69.784,24.15 70.576,23.9730769 71.104,23.6192308 L86.592,13.2692308 C87.296,12.8269231 87.56,11.7653846 87.032,10.9692308 Z M12.936,23.5307692 C13.552,21.3192308 16.192,19.3730769 18.48,19.3730769 L47.256,19.3730769 C49.632,19.3730769 52.184,21.3192308 52.8,23.5307692 L55.704,33.8807692 L9.944,33.8807692 L12.936,23.5307692 Z M10.56,50.0692308 C8.448,50.0692308 6.776,48.3884615 6.776,46.2653846 C6.776,44.1423077 8.448,42.4615385 10.56,42.4615385 C12.672,42.4615385 14.344,44.1423077 14.344,46.2653846 C14.344,48.3884615 12.672,50.0692308 10.56,50.0692308 Z M42.856,54.2269231 L22.792,54.2269231 L22.792,49.1846154 L42.856,49.1846154 L42.856,54.2269231 Z M58.96,46.2653846 C58.96,48.3884615 57.288,50.0692308 55.176,50.0692308 C53.064,50.0692308 51.392,48.3884615 51.392,46.2653846 C51.392,44.1423077 53.064,42.4615385 55.176,42.4615385 C57.2,42.4615385 58.96,44.1423077 58.96,46.2653846 Z M66,20.8769231 C65.032,21.4961538 63.8,21.4076923 62.92,20.7 C63.36,20.4346154 63.712,20.2576923 63.712,20.2576923 C64.24,20.0807692 64.416,19.4615385 64.24,18.9307692 C64.064,18.5769231 63.712,18.3115385 63.36,18.3115385 C63.184,18.3115385 63.096,18.3115385 62.92,18.4 C62.568,18.5769231 62.216,18.7538462 61.864,18.9307692 C61.776,17.9576923 62.128,16.8961538 63.008,16.3653846 C64.24,15.5692308 65.824,15.9230769 66.616,17.1615385 C67.584,18.4 67.232,20.0807692 66,20.8769231 Z M72.864,14.4192308 C71.632,15.2153846 70.048,14.95 69.08,13.3576923 C68.112,11.9423077 68.288,10.2615385 69.696,9.37692308 C71.104,8.49230769 72.512,9.02307692 73.392,10.35 C74.536,12.1192308 74.008,13.7115385 72.864,14.4192308 Z M75.152,17.7807692 L74.448,6.36923077 L75.504,5.75 L76.208,17.1615385 L75.152,17.7807692 Z M80.872,14.0653846 C79.64,14.8615385 78.056,14.5961538 77.088,13.0038462 C76.12,11.5884615 76.296,9.90769231 77.704,9.02307692 C79.112,8.13846154 80.52,8.66923077 81.4,9.99615385 C82.544,11.7653846 82.016,13.2692308 80.872,14.0653846 Z" id="Shape"></path>
                <path d="M78.32,10.0846154 C77.704,10.4384615 77.88,11.2346154 78.408,12.1192308 C78.936,13.0038462 79.64,13.4461538 80.168,13.0923077 C80.696,12.7384615 80.608,12.0307692 79.992,11.1461538 C79.552,10.1730769 78.936,9.73076923 78.32,10.0846154 Z" id="Shape"></path>
            </g>
        </g>
    </g>
</svg>