<?xml version="1.0" encoding="UTF-8"?>
<svg width="72px" height="62px" viewBox="0 0 72 62" version="1.1" xmlns="http://www.w3.org/2000/svg" xmlns:xlink="http://www.w3.org/1999/xlink">
    <!-- Generator: Sketch 48.2 (47327) - http://www.bohemiancoding.com/sketch -->
    <title>ico_talep</title>
    <desc>Created with Sketch.</desc>
    <defs></defs>
    <g id="homepage-signup" stroke="none" stroke-width="1" fill="none" fill-rule="evenodd" transform="translate(-684.000000, -776.000000)">
        <path d="M755.416906,809.739503 C754.756436,799.749889 749.802908,790.420746 741.959824,784.228837 C734.116739,778.036928 723.879449,775.477606 713.972394,777.128782 C696.304814,780.183457 683.343084,796.530097 684.581466,814.527913 C685.159377,823.196585 688.791964,831.204788 694.901314,837.314138 C693.332697,839.625784 691.929198,841.111842 688.214053,844.083959 C687.471024,844.66187 687.140788,845.570017 687.388465,846.478164 C687.553582,847.38631 688.214053,848.129339 689.03964,848.377016 C690.278022,848.78981 692.094316,848.954927 694.158285,848.954927 C698.533901,848.954927 704.06534,847.964222 708.358397,845.735134 C714.054953,847.716545 720.164304,848.211898 726.191095,847.138634 C743.858676,844.0014 756.655288,827.572201 755.416906,809.739503 Z M703.487428,818.573293 C700.267636,818.573293 697.708313,816.013971 697.708313,812.794178 C697.708313,809.574385 700.267636,807.015063 703.487428,807.015063 C706.707221,807.015063 709.266544,809.574385 709.266544,812.794178 C709.266544,816.013971 706.707221,818.573293 703.487428,818.573293 Z M719.999186,818.573293 C716.779393,818.573293 714.220071,816.013971 714.220071,812.794178 C714.220071,809.574385 716.779393,807.015063 719.999186,807.015063 C723.218979,807.015063 725.778301,809.574385 725.778301,812.794178 C725.778301,816.013971 723.218979,818.573293 719.999186,818.573293 Z M736.510944,818.573293 C733.291151,818.573293 730.731828,816.013971 730.731828,812.794178 C730.731828,809.574385 733.291151,807.015063 736.510944,807.015063 C739.730736,807.015063 742.290059,809.574385 742.290059,812.794178 C742.290059,816.013971 739.730736,818.573293 736.510944,818.573293 Z" id="ico_talep" fill="#1061A0" fill-rule="nonzero"></path>
    </g>
</svg>