<?xml version="1.0" encoding="UTF-8" standalone="no"?>
<svg width="50px" height="50px" viewBox="0 0 50 50" version="1.1" xmlns="http://www.w3.org/2000/svg" xmlns:xlink="http://www.w3.org/1999/xlink">
    <!-- Generator: Sketch 50.2 (55047) - http://www.bohemiancoding.com/sketch -->
    <title>ico_info</title>
    <desc>Created with Sketch.</desc>
    <defs></defs>
    <g id="UI" stroke="none" stroke-width="1" fill="none" fill-rule="evenodd">
        <g id="araclar_arac-detay---login" transform="translate(-509.000000, -200.000000)" fill="#253362" fill-rule="nonzero">
            <g id="Group-11" transform="translate(489.000000, 180.000000)">
                <g id="noun_83600_cc" transform="translate(20.000000, 20.000000)">
                    <path d="M25,0 C11.1927778,0 0,11.1927778 0,25 C0,38.8072222 11.1927778,50 25,50 C38.8072222,50 50,38.8072222 50,25 C50,11.1927778 38.8072222,0 25,0 Z M25,9.20111111 C27.4544444,9.20111111 29.4444444,11.1911111 29.4444444,13.6455556 C29.4444444,16.1 27.4544444,18.09 25,18.09 C22.5455556,18.09 20.5555556,16.1 20.5555556,13.6455556 C20.5555556,11.1911111 22.5455556,9.20111111 25,9.20111111 Z M31.6666667,39.6877778 C31.6666667,40.3011111 31.1688889,40.5555556 30.5555556,40.5555556 L19.4444444,40.5555556 C18.8311111,40.5555556 18.3333333,40.3011111 18.3333333,39.6877778 L18.3333333,39.1322222 C18.3333333,38.5183333 18.8311111,37.7777778 19.4444444,37.7777778 L20.5555556,37.7777778 L20.5555556,23.8888889 L19.4444444,23.8888889 C18.8311111,23.8888889 18.3333333,23.6344444 18.3333333,23.0211111 L18.3333333,22.4655556 C18.3333333,21.8516667 18.8311111,21.1111111 19.4444444,21.1111111 L28.3333333,21.1111111 C28.9466667,21.1111111 29.4444444,21.8516667 29.4444444,22.4655556 L29.4444444,23.0211111 L29.4444444,37.7777778 L30.5555556,37.7777778 C31.1688889,37.7777778 31.6666667,38.5183333 31.6666667,39.1322222 L31.6666667,39.6877778 Z" id="ico_info"></path>
                </g>
            </g>
        </g>
    </g>
</svg>